Analysis & Synthesis report for CRCproject
Tue Dec 26 21:42:20 2023
Quartus II Version 9.1 Build 350 03/24/2010 Service Pack 2 SJ Web Edition


---------------------
; Table of Contents ;
---------------------
  1. Legal Notice
  2. Analysis & Synthesis Summary
  3. Analysis & Synthesis Settings
  4. Parallel Compilation
  5. Analysis & Synthesis Source Files Read
  6. Analysis & Synthesis Resource Usage Summary
  7. Analysis & Synthesis Resource Utilization by Entity
  8. State Machine - |CRCproject|tx_module:inst6|state
  9. State Machine - |CRCproject|rx_module2:inst5|state
 10. State Machine - |CRCproject|wrapper_keypad:inst4|STATE
 11. State Machine - |CRCproject|wrapper_keypad:inst4|keypad:u_keypad|current_state
 12. State Machine - |CRCproject|main:inst|STATE
 13. State Machine - |CRCproject|LCD_disp:inst9|RETURN_STATE
 14. State Machine - |CRCproject|LCD_disp:inst9|STATE
 15. Registers Removed During Synthesis
 16. Removed Registers Triggering Further Register Optimizations
 17. General Register Statistics
 18. Inverted Register Statistics
 19. Multiplexer Restructuring Statistics (Restructuring Performed)
 20. Analysis & Synthesis Messages



----------------
; Legal Notice ;
----------------
Copyright (C) 1991-2010 Altera Corporation
Your use of Altera Corporation's design tools, logic functions 
and other software and tools, and its AMPP partner logic 
functions, and any output files from any of the foregoing 
(including device programming or simulation files), and any 
associated documentation or information are expressly subject 
to the terms and conditions of the Altera Program License 
Subscription Agreement, Altera MegaCore Function License 
Agreement, or other applicable license agreement, including, 
without limitation, that your use is for the sole purpose of 
programming logic devices manufactured by Altera and sold by 
Altera or its authorized distributors.  Please refer to the 
applicable agreement for further details.



+-----------------------------------------------------------------------------------+
; Analysis & Synthesis Summary                                                      ;
+------------------------------------+----------------------------------------------+
; Analysis & Synthesis Status        ; Successful - Tue Dec 26 21:42:20 2023        ;
; Quartus II Version                 ; 9.1 Build 350 03/24/2010 SP 2 SJ Web Edition ;
; Revision Name                      ; CRCproject                                   ;
; Top-level Entity Name              ; CRCproject                                   ;
; Family                             ; Cyclone II                                   ;
; Total logic elements               ; 1,079                                        ;
;     Total combinational functions  ; 892                                          ;
;     Dedicated logic registers      ; 691                                          ;
; Total registers                    ; 691                                          ;
; Total pins                         ; 84                                           ;
; Total virtual pins                 ; 0                                            ;
; Total memory bits                  ; 0                                            ;
; Embedded Multiplier 9-bit elements ; 0                                            ;
; Total PLLs                         ; 0                                            ;
+------------------------------------+----------------------------------------------+


+----------------------------------------------------------------------------------------------------------------------+
; Analysis & Synthesis Settings                                                                                        ;
+----------------------------------------------------------------------------+--------------------+--------------------+
; Option                                                                     ; Setting            ; Default Value      ;
+----------------------------------------------------------------------------+--------------------+--------------------+
; Device                                                                     ; EP2C35F672C6       ;                    ;
; Top-level entity name                                                      ; CRCproject         ; CRCproject         ;
; Family name                                                                ; Cyclone II         ; Stratix II         ;
; Use Generated Physical Constraints File                                    ; Off                ;                    ;
; Use smart compilation                                                      ; Off                ; Off                ;
; Enable parallel Assembler and TimeQuest Timing Analyzer during compilation ; On                 ; On                 ;
; Enable compact report table                                                ; Off                ; Off                ;
; Restructure Multiplexers                                                   ; Auto               ; Auto               ;
; Create Debugging Nodes for IP Cores                                        ; Off                ; Off                ;
; Preserve fewer node names                                                  ; On                 ; On                 ;
; Disable OpenCore Plus hardware evaluation                                  ; Off                ; Off                ;
; Verilog Version                                                            ; Verilog_2001       ; Verilog_2001       ;
; VHDL Version                                                               ; VHDL_1993          ; VHDL_1993          ;
; State Machine Processing                                                   ; Auto               ; Auto               ;
; Safe State Machine                                                         ; Off                ; Off                ;
; Extract Verilog State Machines                                             ; On                 ; On                 ;
; Extract VHDL State Machines                                                ; On                 ; On                 ;
; Ignore Verilog initial constructs                                          ; Off                ; Off                ;
; Iteration limit for constant Verilog loops                                 ; 5000               ; 5000               ;
; Iteration limit for non-constant Verilog loops                             ; 250                ; 250                ;
; Add Pass-Through Logic to Inferred RAMs                                    ; On                 ; On                 ;
; Parallel Synthesis                                                         ; On                 ; On                 ;
; DSP Block Balancing                                                        ; Auto               ; Auto               ;
; NOT Gate Push-Back                                                         ; On                 ; On                 ;
; Power-Up Don't Care                                                        ; On                 ; On                 ;
; Remove Redundant Logic Cells                                               ; Off                ; Off                ;
; Remove Duplicate Registers                                                 ; On                 ; On                 ;
; Ignore CARRY Buffers                                                       ; Off                ; Off                ;
; Ignore CASCADE Buffers                                                     ; Off                ; Off                ;
; Ignore GLOBAL Buffers                                                      ; Off                ; Off                ;
; Ignore ROW GLOBAL Buffers                                                  ; Off                ; Off                ;
; Ignore LCELL Buffers                                                       ; Off                ; Off                ;
; Ignore SOFT Buffers                                                        ; On                 ; On                 ;
; Limit AHDL Integers to 32 Bits                                             ; Off                ; Off                ;
; Optimization Technique                                                     ; Balanced           ; Balanced           ;
; Carry Chain Length                                                         ; 70                 ; 70                 ;
; Auto Carry Chains                                                          ; On                 ; On                 ;
; Auto Open-Drain Pins                                                       ; On                 ; On                 ;
; Perform WYSIWYG Primitive Resynthesis                                      ; Off                ; Off                ;
; Auto ROM Replacement                                                       ; On                 ; On                 ;
; Auto RAM Replacement                                                       ; On                 ; On                 ;
; Auto Shift Register Replacement                                            ; Auto               ; Auto               ;
; Auto Clock Enable Replacement                                              ; On                 ; On                 ;
; Strict RAM Replacement                                                     ; Off                ; Off                ;
; Allow Synchronous Control Signals                                          ; On                 ; On                 ;
; Force Use of Synchronous Clear Signals                                     ; Off                ; Off                ;
; Auto RAM to Logic Cell Conversion                                          ; Off                ; Off                ;
; Auto Resource Sharing                                                      ; Off                ; Off                ;
; Allow Any RAM Size For Recognition                                         ; Off                ; Off                ;
; Allow Any ROM Size For Recognition                                         ; Off                ; Off                ;
; Allow Any Shift Register Size For Recognition                              ; Off                ; Off                ;
; Use LogicLock Constraints during Resource Balancing                        ; On                 ; On                 ;
; Ignore translate_off and synthesis_off directives                          ; Off                ; Off                ;
; Timing-Driven Synthesis                                                    ; Off                ; Off                ;
; Show Parameter Settings Tables in Synthesis Report                         ; On                 ; On                 ;
; Ignore Maximum Fan-Out Assignments                                         ; Off                ; Off                ;
; Synchronization Register Chain Length                                      ; 2                  ; 2                  ;
; PowerPlay Power Optimization                                               ; Normal compilation ; Normal compilation ;
; HDL message level                                                          ; Level2             ; Level2             ;
; Suppress Register Optimization Related Messages                            ; Off                ; Off                ;
; Number of Removed Registers Reported in Synthesis Report                   ; 5000               ; 5000               ;
; Number of Inverted Registers Reported in Synthesis Report                  ; 100                ; 100                ;
; Clock MUX Protection                                                       ; On                 ; On                 ;
; Auto Gated Clock Conversion                                                ; Off                ; Off                ;
; Block Design Naming                                                        ; Auto               ; Auto               ;
; SDC constraint protection                                                  ; Off                ; Off                ;
; Synthesis Effort                                                           ; Auto               ; Auto               ;
; Shift Register Replacement - Allow Asynchronous Clear Signal               ; On                 ; On                 ;
; Analysis & Synthesis Message Level                                         ; Medium             ; Medium             ;
; Disable Register Merging Across Hierarchies                                ; Auto               ; Auto               ;
; Resource Aware Inference For Block RAM                                     ; On                 ; On                 ;
+----------------------------------------------------------------------------+--------------------+--------------------+


Parallel compilation was disabled, but you have multiple processors available. Enable parallel compilation to reduce compilation time.
+-------------------------------------+
; Parallel Compilation                ;
+----------------------------+--------+
; Processors                 ; Number ;
+----------------------------+--------+
; Number detected on machine ; 14     ;
; Maximum allowed            ; 1      ;
+----------------------------+--------+


+-------------------------------------------------------------------------------------------------------------------------------------------------------------+
; Analysis & Synthesis Source Files Read                                                                                                                      ;
+-------------------------------------+-----------------+------------------------------------+----------------------------------------------------------------+
; File Name with User-Entered Path    ; Used in Netlist ; File Type                          ; File Name with Absolute Path                                   ;
+-------------------------------------+-----------------+------------------------------------+----------------------------------------------------------------+
; sig_sync.vhd                        ; yes             ; User VHDL File                     ; C:/Users/Paraskevas Aidinidis/ESDC-crc/sig_sync.vhd            ;
; CRC_check.vhd                       ; yes             ; User VHDL File                     ; C:/Users/Paraskevas Aidinidis/ESDC-crc/CRC_check.vhd           ;
; CRC_gen.vhd                         ; yes             ; User VHDL File                     ; C:/Users/Paraskevas Aidinidis/ESDC-crc/CRC_gen.vhd             ;
; hex7seg.vhd                         ; yes             ; User VHDL File                     ; C:/Users/Paraskevas Aidinidis/ESDC-crc/hex7seg.vhd             ;
; keypad.vhd                          ; yes             ; User VHDL File                     ; C:/Users/Paraskevas Aidinidis/ESDC-crc/keypad.vhd              ;
; LCD_disp.vhd                        ; yes             ; User VHDL File                     ; C:/Users/Paraskevas Aidinidis/ESDC-crc/LCD_disp.vhd            ;
; main.vhd                            ; yes             ; User VHDL File                     ; C:/Users/Paraskevas Aidinidis/ESDC-crc/main.vhd                ;
; prng.vhd                            ; yes             ; User VHDL File                     ; C:/Users/Paraskevas Aidinidis/ESDC-crc/prng.vhd                ;
; rx_module2.vhd                      ; yes             ; User VHDL File                     ; C:/Users/Paraskevas Aidinidis/ESDC-crc/rx_module2.vhd          ;
; tx_module.vhd                       ; yes             ; User VHDL File                     ; C:/Users/Paraskevas Aidinidis/ESDC-crc/tx_module.vhd           ;
; wrapper_keypad.vhd                  ; yes             ; User VHDL File                     ; C:/Users/Paraskevas Aidinidis/ESDC-crc/wrapper_keypad.vhd      ;
; wrapper7seg.vhd                     ; yes             ; User VHDL File                     ; C:/Users/Paraskevas Aidinidis/ESDC-crc/wrapper7seg.vhd         ;
; CRCproject.bdf                      ; yes             ; User Block Diagram/Schematic File  ; C:/Users/Paraskevas Aidinidis/ESDC-crc/CRCproject.bdf          ;
; ../Desktop/LCD_disp/altclkctrl0.vhd ; yes             ; User Wizard-Generated File         ; C:/Users/Paraskevas Aidinidis/Desktop/LCD_disp/altclkctrl0.vhd ;
+-------------------------------------+-----------------+------------------------------------+----------------------------------------------------------------+


+------------------------------------------------------------------------------------------------------------------------------------------------------+
; Analysis & Synthesis Resource Usage Summary                                                                                                          ;
+---------------------------------------------+--------------------------------------------------------------------------------------------------------+
; Resource                                    ; Usage                                                                                                  ;
+---------------------------------------------+--------------------------------------------------------------------------------------------------------+
; Estimated Total logic elements              ; 1,079                                                                                                  ;
;                                             ;                                                                                                        ;
; Total combinational functions               ; 892                                                                                                    ;
; Logic element usage by number of LUT inputs ;                                                                                                        ;
;     -- 4 input functions                    ; 362                                                                                                    ;
;     -- 3 input functions                    ; 208                                                                                                    ;
;     -- <=2 input functions                  ; 322                                                                                                    ;
;                                             ;                                                                                                        ;
; Logic elements by mode                      ;                                                                                                        ;
;     -- normal mode                          ; 680                                                                                                    ;
;     -- arithmetic mode                      ; 212                                                                                                    ;
;                                             ;                                                                                                        ;
; Total registers                             ; 691                                                                                                    ;
;     -- Dedicated logic registers            ; 691                                                                                                    ;
;     -- I/O registers                        ; 0                                                                                                      ;
;                                             ;                                                                                                        ;
; I/O pins                                    ; 84                                                                                                     ;
; Maximum fan-out node                        ; altclkctrl0:inst7|altclkctrl0_altclkctrl_6df:altclkctrl0_altclkctrl_6df_component|wire_clkctrl1_outclk ;
; Maximum fan-out                             ; 691                                                                                                    ;
; Total fan-out                               ; 5296                                                                                                   ;
; Average fan-out                             ; 3.18                                                                                                   ;
+---------------------------------------------+--------------------------------------------------------------------------------------------------------+


+----------------------------------------------------------------------------------------------------------------------------------------------------------------------------------------------------------------------------------------------------------------------------------------------------+
; Analysis & Synthesis Resource Utilization by Entity                                                                                                                                                                                                                                                ;
+-------------------------------------------------------------------------+-------------------+--------------+-------------+--------------+---------+-----------+------+--------------+-----------------------------------------------------------------------------------------------+--------------+
; Compilation Hierarchy Node                                              ; LC Combinationals ; LC Registers ; Memory Bits ; DSP Elements ; DSP 9x9 ; DSP 18x18 ; Pins ; Virtual Pins ; Full Hierarchy Name                                                                           ; Library Name ;
+-------------------------------------------------------------------------+-------------------+--------------+-------------+--------------+---------+-----------+------+--------------+-----------------------------------------------------------------------------------------------+--------------+
; |CRCproject                                                             ; 892 (0)           ; 691 (0)      ; 0           ; 0            ; 0       ; 0         ; 84   ; 0            ; |CRCproject                                                                                   ; work         ;
;    |CRC_check:inst2|                                                    ; 63 (63)           ; 50 (50)      ; 0           ; 0            ; 0       ; 0         ; 0    ; 0            ; |CRCproject|CRC_check:inst2                                                                   ;              ;
;    |CRC_gen:inst3|                                                      ; 52 (52)           ; 49 (49)      ; 0           ; 0            ; 0       ; 0         ; 0    ; 0            ; |CRCproject|CRC_gen:inst3                                                                     ;              ;
;    |LCD_disp:inst9|                                                     ; 252 (252)         ; 149 (149)    ; 0           ; 0            ; 0       ; 0         ; 0    ; 0            ; |CRCproject|LCD_disp:inst9                                                                    ;              ;
;    |altclkctrl0:inst7|                                                  ; 0 (0)             ; 0 (0)        ; 0           ; 0            ; 0       ; 0         ; 0    ; 0            ; |CRCproject|altclkctrl0:inst7                                                                 ;              ;
;       |altclkctrl0_altclkctrl_6df:altclkctrl0_altclkctrl_6df_component| ; 0 (0)             ; 0 (0)        ; 0           ; 0            ; 0       ; 0         ; 0    ; 0            ; |CRCproject|altclkctrl0:inst7|altclkctrl0_altclkctrl_6df:altclkctrl0_altclkctrl_6df_component ;              ;
;    |main:inst|                                                          ; 254 (254)         ; 260 (260)    ; 0           ; 0            ; 0       ; 0         ; 0    ; 0            ; |CRCproject|main:inst                                                                         ;              ;
;    |prng:inst1|                                                         ; 2 (2)             ; 2 (2)        ; 0           ; 0            ; 0       ; 0         ; 0    ; 0            ; |CRCproject|prng:inst1                                                                        ;              ;
;    |rx_module2:inst5|                                                   ; 49 (49)           ; 23 (23)      ; 0           ; 0            ; 0       ; 0         ; 0    ; 0            ; |CRCproject|rx_module2:inst5                                                                  ;              ;
;    |sig_sync:inst14|                                                    ; 0 (0)             ; 2 (2)        ; 0           ; 0            ; 0       ; 0         ; 0    ; 0            ; |CRCproject|sig_sync:inst14                                                                   ;              ;
;    |sig_sync:inst15|                                                    ; 0 (0)             ; 2 (2)        ; 0           ; 0            ; 0       ; 0         ; 0    ; 0            ; |CRCproject|sig_sync:inst15                                                                   ;              ;
;    |tx_module:inst6|                                                    ; 39 (39)           ; 16 (16)      ; 0           ; 0            ; 0       ; 0         ; 0    ; 0            ; |CRCproject|tx_module:inst6                                                                   ;              ;
;    |wrapper7seg:inst8|                                                  ; 56 (0)            ; 0 (0)        ; 0           ; 0            ; 0       ; 0         ; 0    ; 0            ; |CRCproject|wrapper7seg:inst8                                                                 ;              ;
;       |hex7seg:display0|                                                ; 7 (7)             ; 0 (0)        ; 0           ; 0            ; 0       ; 0         ; 0    ; 0            ; |CRCproject|wrapper7seg:inst8|hex7seg:display0                                                ;              ;
;       |hex7seg:display1|                                                ; 7 (7)             ; 0 (0)        ; 0           ; 0            ; 0       ; 0         ; 0    ; 0            ; |CRCproject|wrapper7seg:inst8|hex7seg:display1                                                ;              ;
;       |hex7seg:display2|                                                ; 7 (7)             ; 0 (0)        ; 0           ; 0            ; 0       ; 0         ; 0    ; 0            ; |CRCproject|wrapper7seg:inst8|hex7seg:display2                                                ;              ;
;       |hex7seg:display3|                                                ; 7 (7)             ; 0 (0)        ; 0           ; 0            ; 0       ; 0         ; 0    ; 0            ; |CRCproject|wrapper7seg:inst8|hex7seg:display3                                                ;              ;
;       |hex7seg:display4|                                                ; 7 (7)             ; 0 (0)        ; 0           ; 0            ; 0       ; 0         ; 0    ; 0            ; |CRCproject|wrapper7seg:inst8|hex7seg:display4                                                ;              ;
;       |hex7seg:display5|                                                ; 7 (7)             ; 0 (0)        ; 0           ; 0            ; 0       ; 0         ; 0    ; 0            ; |CRCproject|wrapper7seg:inst8|hex7seg:display5                                                ;              ;
;       |hex7seg:display6|                                                ; 7 (7)             ; 0 (0)        ; 0           ; 0            ; 0       ; 0         ; 0    ; 0            ; |CRCproject|wrapper7seg:inst8|hex7seg:display6                                                ;              ;
;       |hex7seg:display7|                                                ; 7 (7)             ; 0 (0)        ; 0           ; 0            ; 0       ; 0         ; 0    ; 0            ; |CRCproject|wrapper7seg:inst8|hex7seg:display7                                                ;              ;
;    |wrapper_keypad:inst4|                                               ; 125 (20)          ; 138 (41)     ; 0           ; 0            ; 0       ; 0         ; 0    ; 0            ; |CRCproject|wrapper_keypad:inst4                                                              ;              ;
;       |keypad:u_keypad|                                                 ; 105 (105)         ; 97 (97)      ; 0           ; 0            ; 0       ; 0         ; 0    ; 0            ; |CRCproject|wrapper_keypad:inst4|keypad:u_keypad                                              ;              ;
+-------------------------------------------------------------------------+-------------------+--------------+-------------+--------------+---------+-----------+------+--------------+-----------------------------------------------------------------------------------------------+--------------+
Note: For table entries with two numbers listed, the numbers in parentheses indicate the number of resources of the given type used by the specific entity alone. The numbers listed outside of parentheses indicate the total resources of the given type used by the specific entity and all of its sub-entities in the hierarchy.


Encoding Type:  One-Hot
+----------------------------------------------------------------------------------+
; State Machine - |CRCproject|tx_module:inst6|state                                ;
+----------------+---------------+----------------+----------------+---------------+
; Name           ; state.tx_stop ; state.tx_shift ; state.tx_start ; state.tx_idle ;
+----------------+---------------+----------------+----------------+---------------+
; state.tx_idle  ; 0             ; 0              ; 0              ; 0             ;
; state.tx_start ; 0             ; 0              ; 1              ; 1             ;
; state.tx_shift ; 0             ; 1              ; 0              ; 1             ;
; state.tx_stop  ; 1             ; 0              ; 0              ; 1             ;
+----------------+---------------+----------------+----------------+---------------+


Encoding Type:  One-Hot
+----------------------------------------------------------------------------------+
; State Machine - |CRCproject|rx_module2:inst5|state                               ;
+----------------+---------------+----------------+----------------+---------------+
; Name           ; state.rx_stop ; state.rx_shift ; state.rx_start ; state.rx_idle ;
+----------------+---------------+----------------+----------------+---------------+
; state.rx_idle  ; 0             ; 0              ; 0              ; 0             ;
; state.rx_start ; 0             ; 0              ; 1              ; 1             ;
; state.rx_shift ; 0             ; 1              ; 0              ; 1             ;
; state.rx_stop  ; 1             ; 0              ; 0              ; 1             ;
+----------------+---------------+----------------+----------------+---------------+


Encoding Type:  One-Hot
+------------------------------------------------------------------------------------+
; State Machine - |CRCproject|wrapper_keypad:inst4|STATE                             ;
+--------------------+------------+--------------------+----------------+------------+
; Name               ; STATE.STOP ; STATE.CONFIRM_DATA ; STATE.READ_KEY ; STATE.IDLE ;
+--------------------+------------+--------------------+----------------+------------+
; STATE.IDLE         ; 0          ; 0                  ; 0              ; 0          ;
; STATE.READ_KEY     ; 0          ; 0                  ; 1              ; 1          ;
; STATE.CONFIRM_DATA ; 0          ; 1                  ; 0              ; 1          ;
; STATE.STOP         ; 1          ; 0                  ; 0              ; 1          ;
+--------------------+------------+--------------------+----------------+------------+


Encoding Type:  One-Hot
+-------------------------------------------------------------------------------------------------------------------------------------------------------------------------------------------------------------------------------------------------+
; State Machine - |CRCproject|wrapper_keypad:inst4|keypad:u_keypad|current_state                                                                                                                                                                  ;
+--------------------------+----------------------+---------------------+--------------------+------------------------+------------------------+------------------------+------------------------+--------------------------+---------------------+
; Name                     ; current_state.check1 ; current_state.wait1 ; current_state.skey ; current_state.srow_4st ; current_state.srow_3st ; current_state.srow_2st ; current_state.srow_1st ; current_state.check_All0 ; current_state.wait0 ;
+--------------------------+----------------------+---------------------+--------------------+------------------------+------------------------+------------------------+------------------------+--------------------------+---------------------+
; current_state.wait0      ; 0                    ; 0                   ; 0                  ; 0                      ; 0                      ; 0                      ; 0                      ; 0                        ; 0                   ;
; current_state.check_All0 ; 0                    ; 0                   ; 0                  ; 0                      ; 0                      ; 0                      ; 0                      ; 1                        ; 1                   ;
; current_state.srow_1st   ; 0                    ; 0                   ; 0                  ; 0                      ; 0                      ; 0                      ; 1                      ; 0                        ; 1                   ;
; current_state.srow_2st   ; 0                    ; 0                   ; 0                  ; 0                      ; 0                      ; 1                      ; 0                      ; 0                        ; 1                   ;
; current_state.srow_3st   ; 0                    ; 0                   ; 0                  ; 0                      ; 1                      ; 0                      ; 0                      ; 0                        ; 1                   ;
; current_state.srow_4st   ; 0                    ; 0                   ; 0                  ; 1                      ; 0                      ; 0                      ; 0                      ; 0                        ; 1                   ;
; current_state.skey       ; 0                    ; 0                   ; 1                  ; 0                      ; 0                      ; 0                      ; 0                      ; 0                        ; 1                   ;
; current_state.wait1      ; 0                    ; 1                   ; 0                  ; 0                      ; 0                      ; 0                      ; 0                      ; 0                        ; 1                   ;
; current_state.check1     ; 1                    ; 0                   ; 0                  ; 0                      ; 0                      ; 0                      ; 0                      ; 0                        ; 1                   ;
+--------------------------+----------------------+---------------------+--------------------+------------------------+------------------------+------------------------+------------------------+--------------------------+---------------------+


Encoding Type:  One-Hot
+--------------------------------------------------------------------------------------------------------------------------------------------------------------------------------------------------------------------------------------------------------------+
; State Machine - |CRCproject|main:inst|STATE                                                                                                                                                                                                                  ;
+------------------------+----------------------+------------------+----------------------+-------------------+--------------------+-------------+-------------------+------------------+------------------------+-----------------+--------------+------------+
; Name                   ; STATE.R_DISPLAY_STAT ; STATE.R_SEND_ACK ; STATE.R_DISPLAY_DATA ; STATE.R_CHECK_CRC ; STATE.R_WAIT_FRAME ; STATE.T_END ; STATE.T_CHECK_ACK ; STATE.T_WAIT_ACK ; STATE.T_TRANSMIT_FRAME ; STATE.T_GEN_CRC ; STATE.T_IDLE ; STATE.IDLE ;
+------------------------+----------------------+------------------+----------------------+-------------------+--------------------+-------------+-------------------+------------------+------------------------+-----------------+--------------+------------+
; STATE.IDLE             ; 0                    ; 0                ; 0                    ; 0                 ; 0                  ; 0           ; 0                 ; 0                ; 0                      ; 0               ; 0            ; 0          ;
; STATE.T_IDLE           ; 0                    ; 0                ; 0                    ; 0                 ; 0                  ; 0           ; 0                 ; 0                ; 0                      ; 0               ; 1            ; 1          ;
; STATE.T_GEN_CRC        ; 0                    ; 0                ; 0                    ; 0                 ; 0                  ; 0           ; 0                 ; 0                ; 0                      ; 1               ; 0            ; 1          ;
; STATE.T_TRANSMIT_FRAME ; 0                    ; 0                ; 0                    ; 0                 ; 0                  ; 0           ; 0                 ; 0                ; 1                      ; 0               ; 0            ; 1          ;
; STATE.T_WAIT_ACK       ; 0                    ; 0                ; 0                    ; 0                 ; 0                  ; 0           ; 0                 ; 1                ; 0                      ; 0               ; 0            ; 1          ;
; STATE.T_CHECK_ACK      ; 0                    ; 0                ; 0                    ; 0                 ; 0                  ; 0           ; 1                 ; 0                ; 0                      ; 0               ; 0            ; 1          ;
; STATE.T_END            ; 0                    ; 0                ; 0                    ; 0                 ; 0                  ; 1           ; 0                 ; 0                ; 0                      ; 0               ; 0            ; 1          ;
; STATE.R_WAIT_FRAME     ; 0                    ; 0                ; 0                    ; 0                 ; 1                  ; 0           ; 0                 ; 0                ; 0                      ; 0               ; 0            ; 1          ;
; STATE.R_CHECK_CRC      ; 0                    ; 0                ; 0                    ; 1                 ; 0                  ; 0           ; 0                 ; 0                ; 0                      ; 0               ; 0            ; 1          ;
; STATE.R_DISPLAY_DATA   ; 0                    ; 0                ; 1                    ; 0                 ; 0                  ; 0           ; 0                 ; 0                ; 0                      ; 0               ; 0            ; 1          ;
; STATE.R_SEND_ACK       ; 0                    ; 1                ; 0                    ; 0                 ; 0                  ; 0           ; 0                 ; 0                ; 0                      ; 0               ; 0            ; 1          ;
; STATE.R_DISPLAY_STAT   ; 1                    ; 0                ; 0                    ; 0                 ; 0                  ; 0           ; 0                 ; 0                ; 0                      ; 0               ; 0            ; 1          ;
+------------------------+----------------------+------------------+----------------------+-------------------+--------------------+-------------+-------------------+------------------+------------------------+-----------------+--------------+------------+


Encoding Type:  One-Hot
+-----------------------------------------------------------------------------------------------------------------------------------------------------------------------------------------------------------------------------------------------------------------------------------------------------------------------------------------------------------------------------------------------------------------------------------------+
; State Machine - |CRCproject|LCD_disp:inst9|RETURN_STATE                                                                                                                                                                                                                                                                                                                                                                                 ;
+---------------------------+---------------------+----------------------+----------------------+----------------------+----------------------+----------------------+---------------------------+---------------------------+---------------------------+---------------------------+----------------------+--------------------+---------------------------+---------------------+--------------------------+---------------------------+
; Name                      ; RETURN_STATE.S_STOP ; RETURN_STATE.S_STAT2 ; RETURN_STATE.S_STAT1 ; RETURN_STATE.S_PROG3 ; RETURN_STATE.S_PROG2 ; RETURN_STATE.S_PROG1 ; RETURN_STATE.S_INIT_PROG4 ; RETURN_STATE.S_INIT_PROG3 ; RETURN_STATE.S_INIT_PROG2 ; RETURN_STATE.S_INIT_PROG1 ; RETURN_STATE.S_RHOME ; RETURN_STATE.S_CLR ; RETURN_STATE.S_INIT_DISP2 ; RETURN_STATE.S_IDLE ; RETURN_STATE.S_WAIT_BUSY ; RETURN_STATE.S_INIT_DISP1 ;
+---------------------------+---------------------+----------------------+----------------------+----------------------+----------------------+----------------------+---------------------------+---------------------------+---------------------------+---------------------------+----------------------+--------------------+---------------------------+---------------------+--------------------------+---------------------------+
; RETURN_STATE.S_INIT_DISP1 ; 0                   ; 0                    ; 0                    ; 0                    ; 0                    ; 0                    ; 0                         ; 0                         ; 0                         ; 0                         ; 0                    ; 0                  ; 0                         ; 0                   ; 0                        ; 0                         ;
; RETURN_STATE.S_WAIT_BUSY  ; 0                   ; 0                    ; 0                    ; 0                    ; 0                    ; 0                    ; 0                         ; 0                         ; 0                         ; 0                         ; 0                    ; 0                  ; 0                         ; 0                   ; 1                        ; 1                         ;
; RETURN_STATE.S_IDLE       ; 0                   ; 0                    ; 0                    ; 0                    ; 0                    ; 0                    ; 0                         ; 0                         ; 0                         ; 0                         ; 0                    ; 0                  ; 0                         ; 1                   ; 0                        ; 1                         ;
; RETURN_STATE.S_INIT_DISP2 ; 0                   ; 0                    ; 0                    ; 0                    ; 0                    ; 0                    ; 0                         ; 0                         ; 0                         ; 0                         ; 0                    ; 0                  ; 1                         ; 0                   ; 0                        ; 1                         ;
; RETURN_STATE.S_CLR        ; 0                   ; 0                    ; 0                    ; 0                    ; 0                    ; 0                    ; 0                         ; 0                         ; 0                         ; 0                         ; 0                    ; 1                  ; 0                         ; 0                   ; 0                        ; 1                         ;
; RETURN_STATE.S_RHOME      ; 0                   ; 0                    ; 0                    ; 0                    ; 0                    ; 0                    ; 0                         ; 0                         ; 0                         ; 0                         ; 1                    ; 0                  ; 0                         ; 0                   ; 0                        ; 1                         ;
; RETURN_STATE.S_INIT_PROG1 ; 0                   ; 0                    ; 0                    ; 0                    ; 0                    ; 0                    ; 0                         ; 0                         ; 0                         ; 1                         ; 0                    ; 0                  ; 0                         ; 0                   ; 0                        ; 1                         ;
; RETURN_STATE.S_INIT_PROG2 ; 0                   ; 0                    ; 0                    ; 0                    ; 0                    ; 0                    ; 0                         ; 0                         ; 1                         ; 0                         ; 0                    ; 0                  ; 0                         ; 0                   ; 0                        ; 1                         ;
; RETURN_STATE.S_INIT_PROG3 ; 0                   ; 0                    ; 0                    ; 0                    ; 0                    ; 0                    ; 0                         ; 1                         ; 0                         ; 0                         ; 0                    ; 0                  ; 0                         ; 0                   ; 0                        ; 1                         ;
; RETURN_STATE.S_INIT_PROG4 ; 0                   ; 0                    ; 0                    ; 0                    ; 0                    ; 0                    ; 1                         ; 0                         ; 0                         ; 0                         ; 0                    ; 0                  ; 0                         ; 0                   ; 0                        ; 1                         ;
; RETURN_STATE.S_PROG1      ; 0                   ; 0                    ; 0                    ; 0                    ; 0                    ; 1                    ; 0                         ; 0                         ; 0                         ; 0                         ; 0                    ; 0                  ; 0                         ; 0                   ; 0                        ; 1                         ;
; RETURN_STATE.S_PROG2      ; 0                   ; 0                    ; 0                    ; 0                    ; 1                    ; 0                    ; 0                         ; 0                         ; 0                         ; 0                         ; 0                    ; 0                  ; 0                         ; 0                   ; 0                        ; 1                         ;
; RETURN_STATE.S_PROG3      ; 0                   ; 0                    ; 0                    ; 1                    ; 0                    ; 0                    ; 0                         ; 0                         ; 0                         ; 0                         ; 0                    ; 0                  ; 0                         ; 0                   ; 0                        ; 1                         ;
; RETURN_STATE.S_STAT1      ; 0                   ; 0                    ; 1                    ; 0                    ; 0                    ; 0                    ; 0                         ; 0                         ; 0                         ; 0                         ; 0                    ; 0                  ; 0                         ; 0                   ; 0                        ; 1                         ;
; RETURN_STATE.S_STAT2      ; 0                   ; 1                    ; 0                    ; 0                    ; 0                    ; 0                    ; 0                         ; 0                         ; 0                         ; 0                         ; 0                    ; 0                  ; 0                         ; 0                   ; 0                        ; 1                         ;
; RETURN_STATE.S_STOP       ; 1                   ; 0                    ; 0                    ; 0                    ; 0                    ; 0                    ; 0                         ; 0                         ; 0                         ; 0                         ; 0                    ; 0                  ; 0                         ; 0                   ; 0                        ; 1                         ;
+---------------------------+---------------------+----------------------+----------------------+----------------------+----------------------+----------------------+---------------------------+---------------------------+---------------------------+---------------------------+----------------------+--------------------+---------------------------+---------------------+--------------------------+---------------------------+


Encoding Type:  One-Hot
+------------------------------------------------------------------------------------------------------------------------------------------------------------------------------------------------------------------------------------------------------------------------------------------------------------------+
; State Machine - |CRCproject|LCD_disp:inst9|STATE                                                                                                                                                                                                                                                                 ;
+--------------------+--------------+---------------+---------------+---------------+---------------+---------------+--------------------+--------------------+--------------------+--------------------+---------------+-------------+--------------------+--------------+-------------------+--------------------+
; Name               ; STATE.S_STOP ; STATE.S_STAT2 ; STATE.S_STAT1 ; STATE.S_PROG3 ; STATE.S_PROG2 ; STATE.S_PROG1 ; STATE.S_INIT_PROG4 ; STATE.S_INIT_PROG3 ; STATE.S_INIT_PROG2 ; STATE.S_INIT_PROG1 ; STATE.S_RHOME ; STATE.S_CLR ; STATE.S_INIT_DISP2 ; STATE.S_IDLE ; STATE.S_WAIT_BUSY ; STATE.S_INIT_DISP1 ;
+--------------------+--------------+---------------+---------------+---------------+---------------+---------------+--------------------+--------------------+--------------------+--------------------+---------------+-------------+--------------------+--------------+-------------------+--------------------+
; STATE.S_INIT_DISP1 ; 0            ; 0             ; 0             ; 0             ; 0             ; 0             ; 0                  ; 0                  ; 0                  ; 0                  ; 0             ; 0           ; 0                  ; 0            ; 0                 ; 0                  ;
; STATE.S_WAIT_BUSY  ; 0            ; 0             ; 0             ; 0             ; 0             ; 0             ; 0                  ; 0                  ; 0                  ; 0                  ; 0             ; 0           ; 0                  ; 0            ; 1                 ; 1                  ;
; STATE.S_IDLE       ; 0            ; 0             ; 0             ; 0             ; 0             ; 0             ; 0                  ; 0                  ; 0                  ; 0                  ; 0             ; 0           ; 0                  ; 1            ; 0                 ; 1                  ;
; STATE.S_INIT_DISP2 ; 0            ; 0             ; 0             ; 0             ; 0             ; 0             ; 0                  ; 0                  ; 0                  ; 0                  ; 0             ; 0           ; 1                  ; 0            ; 0                 ; 1                  ;
; STATE.S_CLR        ; 0            ; 0             ; 0             ; 0             ; 0             ; 0             ; 0                  ; 0                  ; 0                  ; 0                  ; 0             ; 1           ; 0                  ; 0            ; 0                 ; 1                  ;
; STATE.S_RHOME      ; 0            ; 0             ; 0             ; 0             ; 0             ; 0             ; 0                  ; 0                  ; 0                  ; 0                  ; 1             ; 0           ; 0                  ; 0            ; 0                 ; 1                  ;
; STATE.S_INIT_PROG1 ; 0            ; 0             ; 0             ; 0             ; 0             ; 0             ; 0                  ; 0                  ; 0                  ; 1                  ; 0             ; 0           ; 0                  ; 0            ; 0                 ; 1                  ;
; STATE.S_INIT_PROG2 ; 0            ; 0             ; 0             ; 0             ; 0             ; 0             ; 0                  ; 0                  ; 1                  ; 0                  ; 0             ; 0           ; 0                  ; 0            ; 0                 ; 1                  ;
; STATE.S_INIT_PROG3 ; 0            ; 0             ; 0             ; 0             ; 0             ; 0             ; 0                  ; 1                  ; 0                  ; 0                  ; 0             ; 0           ; 0                  ; 0            ; 0                 ; 1                  ;
; STATE.S_INIT_PROG4 ; 0            ; 0             ; 0             ; 0             ; 0             ; 0             ; 1                  ; 0                  ; 0                  ; 0                  ; 0             ; 0           ; 0                  ; 0            ; 0                 ; 1                  ;
; STATE.S_PROG1      ; 0            ; 0             ; 0             ; 0             ; 0             ; 1             ; 0                  ; 0                  ; 0                  ; 0                  ; 0             ; 0           ; 0                  ; 0            ; 0                 ; 1                  ;
; STATE.S_PROG2      ; 0            ; 0             ; 0             ; 0             ; 1             ; 0             ; 0                  ; 0                  ; 0                  ; 0                  ; 0             ; 0           ; 0                  ; 0            ; 0                 ; 1                  ;
; STATE.S_PROG3      ; 0            ; 0             ; 0             ; 1             ; 0             ; 0             ; 0                  ; 0                  ; 0                  ; 0                  ; 0             ; 0           ; 0                  ; 0            ; 0                 ; 1                  ;
; STATE.S_STAT1      ; 0            ; 0             ; 1             ; 0             ; 0             ; 0             ; 0                  ; 0                  ; 0                  ; 0                  ; 0             ; 0           ; 0                  ; 0            ; 0                 ; 1                  ;
; STATE.S_STAT2      ; 0            ; 1             ; 0             ; 0             ; 0             ; 0             ; 0                  ; 0                  ; 0                  ; 0                  ; 0             ; 0           ; 0                  ; 0            ; 0                 ; 1                  ;
; STATE.S_STOP       ; 1            ; 0             ; 0             ; 0             ; 0             ; 0             ; 0                  ; 0                  ; 0                  ; 0                  ; 0             ; 0           ; 0                  ; 0            ; 0                 ; 1                  ;
+--------------------+--------------+---------------+---------------+---------------+---------------+---------------+--------------------+--------------------+--------------------+--------------------+---------------+-------------+--------------------+--------------+-------------------+--------------------+


+-----------------------------------------------------------------------------------+
; Registers Removed During Synthesis                                                ;
+------------------------------------------+----------------------------------------+
; Register name                            ; Reason for Removal                     ;
+------------------------------------------+----------------------------------------+
; CRC_check:inst2|CRC_check_busy           ; Merged with CRC_check:inst2|STATE      ;
; CRC_gen:inst3|CRC_gen_busy               ; Merged with CRC_gen:inst3|STATE        ;
; CRC_gen:inst3|r_data[0..7]               ; Stuck at GND due to stuck port data_in ;
; LCD_disp:inst9|RETURN_STATE.S_WAIT_BUSY  ; Stuck at GND due to stuck port data_in ;
; LCD_disp:inst9|RETURN_STATE.S_INIT_PROG1 ; Stuck at GND due to stuck port data_in ;
; Total Number of Removed Registers = 12   ;                                        ;
+------------------------------------------+----------------------------------------+


+----------------------------------------------------------------------------------------------------------------------------------+
; Removed Registers Triggering Further Register Optimizations                                                                      ;
+-------------------------+---------------------------+----------------------------------------------------------------------------+
; Register name           ; Reason for Removal        ; Registers Removed due to This Register                                     ;
+-------------------------+---------------------------+----------------------------------------------------------------------------+
; CRC_gen:inst3|r_data[0] ; Stuck at GND              ; CRC_gen:inst3|r_data[1], CRC_gen:inst3|r_data[2], CRC_gen:inst3|r_data[3], ;
;                         ; due to stuck port data_in ; CRC_gen:inst3|r_data[4], CRC_gen:inst3|r_data[5], CRC_gen:inst3|r_data[6], ;
;                         ;                           ; CRC_gen:inst3|r_data[7]                                                    ;
+-------------------------+---------------------------+----------------------------------------------------------------------------+


+------------------------------------------------------+
; General Register Statistics                          ;
+----------------------------------------------+-------+
; Statistic                                    ; Value ;
+----------------------------------------------+-------+
; Total registers                              ; 691   ;
; Number of registers using Synchronous Clear  ; 48    ;
; Number of registers using Synchronous Load   ; 18    ;
; Number of registers using Asynchronous Clear ; 558   ;
; Number of registers using Asynchronous Load  ; 0     ;
; Number of registers using Clock Enable       ; 499   ;
; Number of registers using Preset             ; 0     ;
+----------------------------------------------+-------+


+---------------------------------------------------+
; Inverted Register Statistics                      ;
+-----------------------------------------+---------+
; Inverted Register                       ; Fan out ;
+-----------------------------------------+---------+
; tx_module:inst6|tx                      ; 1       ;
; tx_module:inst6|tx_empty                ; 5       ;
; CRC_check:inst2|counter[6]              ; 2       ;
; CRC_check:inst2|counter[5]              ; 2       ;
; CRC_check:inst2|counter[4]              ; 2       ;
; CRC_check:inst2|counter[3]              ; 2       ;
; CRC_check:inst2|counter[2]              ; 2       ;
; CRC_check:inst2|counter[1]              ; 2       ;
; CRC_check:inst2|counter[0]              ; 2       ;
; CRC_gen:inst3|counter[6]                ; 2       ;
; CRC_gen:inst3|counter[5]                ; 2       ;
; CRC_gen:inst3|counter[4]                ; 2       ;
; CRC_gen:inst3|counter[3]                ; 2       ;
; CRC_gen:inst3|counter[2]                ; 2       ;
; CRC_gen:inst3|counter[1]                ; 2       ;
; CRC_gen:inst3|counter[0]                ; 2       ;
; Total number of inverted registers = 16 ;         ;
+-----------------------------------------+---------+


+---------------------------------------------------------------------------------------------------------------------------------------------------------------------------+
; Multiplexer Restructuring Statistics (Restructuring Performed)                                                                                                            ;
+--------------------+-----------+---------------+----------------------+------------------------+------------+-------------------------------------------------------------+
; Multiplexer Inputs ; Bus Width ; Baseline Area ; Area if Restructured ; Saving if Restructured ; Registered ; Example Multiplexer Output                                  ;
+--------------------+-----------+---------------+----------------------+------------------------+------------+-------------------------------------------------------------+
; 3:1                ; 40 bits   ; 80 LEs        ; 0 LEs                ; 80 LEs                 ; Yes        ; |CRCproject|main:inst|CRC_data_check_int[33]                ;
; 3:1                ; 34 bits   ; 68 LEs        ; 34 LEs               ; 34 LEs                 ; Yes        ; |CRCproject|CRC_check:inst2|r_data[25]                      ;
; 3:1                ; 26 bits   ; 52 LEs        ; 26 LEs               ; 26 LEs                 ; Yes        ; |CRCproject|CRC_gen:inst3|r_data[15]                        ;
; 4:1                ; 3 bits    ; 6 LEs         ; 3 LEs                ; 3 LEs                  ; Yes        ; |CRCproject|main:inst|tx_byte_counter[2]                    ;
; 4:1                ; 5 bits    ; 10 LEs        ; 10 LEs               ; 0 LEs                  ; Yes        ; |CRCproject|CRC_check:inst2|r_crc[3]                        ;
; 4:1                ; 5 bits    ; 10 LEs        ; 10 LEs               ; 0 LEs                  ; Yes        ; |CRCproject|CRC_gen:inst3|r_crc[3]                          ;
; 4:1                ; 3 bits    ; 6 LEs         ; 3 LEs                ; 3 LEs                  ; Yes        ; |CRCproject|main:inst|rx_byte_counter[2]                    ;
; 4:1                ; 17 bits   ; 34 LEs        ; 17 LEs               ; 17 LEs                 ; Yes        ; |CRCproject|main:inst|tx_counter[12]                        ;
; 5:1                ; 8 bits    ; 24 LEs        ; 8 LEs                ; 16 LEs                 ; Yes        ; |CRCproject|main:inst|tx_data_reg[4]                        ;
; 5:1                ; 32 bits   ; 96 LEs        ; 32 LEs               ; 64 LEs                 ; Yes        ; |CRCproject|main:inst|tx_data_reg[13]                       ;
; 6:1                ; 4 bits    ; 16 LEs        ; 4 LEs                ; 12 LEs                 ; Yes        ; |CRCproject|wrapper_keypad:inst4|key_counter[0]             ;
; 6:1                ; 7 bits    ; 28 LEs        ; 7 LEs                ; 21 LEs                 ; Yes        ; |CRCproject|rx_module2:inst5|baud[4]                        ;
; 7:1                ; 4 bits    ; 16 LEs        ; 4 LEs                ; 12 LEs                 ; Yes        ; |CRCproject|LCD_disp:inst9|reg_stat_err[0]                  ;
; 7:1                ; 3 bits    ; 12 LEs        ; 3 LEs                ; 9 LEs                  ; Yes        ; |CRCproject|LCD_disp:inst9|num_address[3]                   ;
; 7:1                ; 13 bits   ; 52 LEs        ; 13 LEs               ; 39 LEs                 ; Yes        ; |CRCproject|LCD_disp:inst9|reg_stat_err[7]                  ;
; 8:1                ; 4 bits    ; 20 LEs        ; 4 LEs                ; 16 LEs                 ; Yes        ; |CRCproject|LCD_disp:inst9|tx_counter_r[1]                  ;
; 9:1                ; 3 bits    ; 18 LEs        ; 3 LEs                ; 15 LEs                 ; Yes        ; |CRCproject|rx_module2:inst5|bit_count[0]                   ;
; 15:1               ; 2 bits    ; 20 LEs        ; 14 LEs               ; 6 LEs                  ; Yes        ; |CRCproject|wrapper_keypad:inst4|keypad:u_keypad|keycode[2] ;
; 3:1                ; 3 bits    ; 6 LEs         ; 6 LEs                ; 0 LEs                  ; No         ; |CRCproject|tx_module:inst6|bit_count                       ;
; 7:1                ; 2 bits    ; 8 LEs         ; 4 LEs                ; 4 LEs                  ; No         ; |CRCproject|tx_module:inst6|Selector12                      ;
; 9:1                ; 2 bits    ; 12 LEs        ; 4 LEs                ; 8 LEs                  ; No         ; |CRCproject|tx_module:inst6|Selector11                      ;
; 9:1                ; 2 bits    ; 12 LEs        ; 4 LEs                ; 8 LEs                  ; No         ; |CRCproject|rx_module2:inst5|Selector13                     ;
; 9:1                ; 2 bits    ; 12 LEs        ; 4 LEs                ; 8 LEs                  ; No         ; |CRCproject|rx_module2:inst5|Selector12                     ;
; 9:1                ; 4 bits    ; 24 LEs        ; 12 LEs               ; 12 LEs                 ; No         ; |CRCproject|wrapper_keypad:inst4|Selector3                  ;
; 5:1                ; 3 bits    ; 9 LEs         ; 3 LEs                ; 6 LEs                  ; No         ; |CRCproject|LCD_disp:inst9|RETURN_STATE                     ;
; 19:1               ; 6 bits    ; 72 LEs        ; 36 LEs               ; 36 LEs                 ; No         ; |CRCproject|main:inst|Selector5                             ;
; 12:1               ; 16 bits   ; 128 LEs       ; 64 LEs               ; 64 LEs                 ; No         ; |CRCproject|LCD_disp:inst9|STATE                            ;
+--------------------+-----------+---------------+----------------------+------------------------+------------+-------------------------------------------------------------+


+-------------------------------+
; Analysis & Synthesis Messages ;
+-------------------------------+
Info: *******************************************************************
Info: Running Quartus II Analysis & Synthesis
    Info: Version 9.1 Build 350 03/24/2010 Service Pack 2 SJ Web Edition
    Info: Processing started: Tue Dec 26 21:42:17 2023
Info: Command: quartus_map --read_settings_files=on --write_settings_files=off CRCproject -c CRCproject
Info: Found 2 design units, including 1 entities, in source file sig_sync.vhd
    Info: Found design unit 1: sig_sync-rtl
    Info: Found entity 1: sig_sync
Info: Found 2 design units, including 1 entities, in source file count4b.vhd
    Info: Found design unit 1: count4b-arc_count4b
    Info: Found entity 1: count4b
Info: Found 2 design units, including 1 entities, in source file crc_check.vhd
    Info: Found design unit 1: CRC_check-rtl
    Info: Found entity 1: CRC_check
Info: Found 2 design units, including 1 entities, in source file crc_gen.vhd
    Info: Found design unit 1: CRC_gen-rtl
    Info: Found entity 1: CRC_gen
Info: Found 2 design units, including 1 entities, in source file hex7seg.vhd
    Info: Found design unit 1: hex7seg-behaviour
    Info: Found entity 1: hex7seg
Info: Found 2 design units, including 1 entities, in source file keypad.vhd
    Info: Found design unit 1: keypad-arc_keypad
    Info: Found entity 1: keypad
Info: Found 2 design units, including 1 entities, in source file lcd_disp.vhd
    Info: Found design unit 1: LCD_disp-rtl
    Info: Found entity 1: LCD_disp
Info: Found 2 design units, including 1 entities, in source file main.vhd
    Info: Found design unit 1: main-rtl
    Info: Found entity 1: main
Info: Found 2 design units, including 1 entities, in source file prng.vhd
    Info: Found design unit 1: prng-rtl
    Info: Found entity 1: prng
Info: Found 2 design units, including 1 entities, in source file rx_module2.vhd
    Info: Found design unit 1: rx_module2-main
    Info: Found entity 1: rx_module2
Info: Found 2 design units, including 1 entities, in source file tx_module.vhd
    Info: Found design unit 1: tx_module-main
    Info: Found entity 1: tx_module
Info: Found 2 design units, including 1 entities, in source file wrapper_keypad.vhd
    Info: Found design unit 1: wrapper_keypad-rtl
    Info: Found entity 1: wrapper_keypad
Info: Found 2 design units, including 1 entities, in source file wrapper7seg.vhd
    Info: Found design unit 1: wrapper7seg-rtl
    Info: Found entity 1: wrapper7seg
Info: Found 1 design units, including 1 entities, in source file crcproject.bdf
    Info: Found entity 1: CRCproject
Info: Found 4 design units, including 2 entities, in source file /users/paraskevas aidinidis/desktop/lcd_disp/altclkctrl0.vhd
    Info: Found design unit 1: altclkctrl0_altclkctrl_6df-RTL
    Info: Found design unit 2: altclkctrl0-RTL
    Info: Found entity 1: altclkctrl0_altclkctrl_6df
    Info: Found entity 2: altclkctrl0
Info: Elaborating entity "CRCproject" for the top level hierarchy
Info: Elaborating entity "LCD_disp" for hierarchy "LCD_disp:inst9"
Warning (10631): VHDL Process Statement warning at LCD_disp.vhd(79): inferring latch(es) for signal or variable "ON_LCD", which holds its previous value in one or more paths through the process
Info (10041): Inferred latch for "ON_LCD" at LCD_disp.vhd(79)
Info: Elaborating entity "altclkctrl0" for hierarchy "altclkctrl0:inst7"
Info: Elaborating entity "altclkctrl0_altclkctrl_6df" for hierarchy "altclkctrl0:inst7|altclkctrl0_altclkctrl_6df:altclkctrl0_altclkctrl_6df_component"
Info: Elaborating entity "main" for hierarchy "main:inst"
Info: Elaborating entity "wrapper_keypad" for hierarchy "wrapper_keypad:inst4"
Info: Elaborating entity "keypad" for hierarchy "wrapper_keypad:inst4|keypad:u_keypad"
Info: Elaborating entity "CRC_gen" for hierarchy "CRC_gen:inst3"
Info: Elaborating entity "rx_module2" for hierarchy "rx_module2:inst5"
Info: Elaborating entity "tx_module" for hierarchy "tx_module:inst6"
Info: Elaborating entity "prng" for hierarchy "prng:inst1"
Info: Elaborating entity "CRC_check" for hierarchy "CRC_check:inst2"
Info: Elaborating entity "sig_sync" for hierarchy "sig_sync:inst15"
Info: Elaborating entity "wrapper7seg" for hierarchy "wrapper7seg:inst8"
Info: Elaborating entity "hex7seg" for hierarchy "wrapper7seg:inst8|hex7seg:display0"
Info: Registers with preset signals will power-up high
Info: DEV_CLRn pin will set, and not reset, register with preset signal due to NOT Gate Push-Back
Warning: Output pins are stuck at VCC or GND
    Warning (13410): Pin "LCD_ON" is stuck at VCC
Critical Warning: Ignored Power-Up Level option on the following registers
    Critical Warning (18010): Register LCD_disp:inst9|clk_counter[31] will power up to Low
    Critical Warning (18010): Register LCD_disp:inst9|clk_counter[0] will power up to Low
    Critical Warning (18010): Register LCD_disp:inst9|busy_counter[31] will power up to Low
    Critical Warning (18010): Register LCD_disp:inst9|busy_counter[0] will power up to Low
Info: Implemented 1168 device resources after synthesis - the final resource count might be different
    Info: Implemented 9 input pins
    Info: Implemented 67 output pins
    Info: Implemented 8 bidirectional pins
    Info: Implemented 1083 logic cells
Info: Quartus II Analysis & Synthesis was successful. 0 errors, 8 warnings
    Info: Peak virtual memory: 251 megabytes
    Info: Processing ended: Tue Dec 26 21:42:20 2023
    Info: Elapsed time: 00:00:03
    Info: Total CPU time (on all processors): 00:00:01


